tessent/s9234_scan_bist_only.vcd
$version Generated by etr_to_vcd.py $end
$timescale 1ps $end

$comment VERILOG TESTBENCH $end
$comment s9234_scan_bist_only.vcd $end
$comment Input file: s9234_scan_bist_only.Setr $end
$comment Converted from etr to VCD $end
$comment s9234_scan_bist_only $end
$comment 4097 vectors in file $end
$comment 1 clock signals present $end
$comment 46 input signals present (not including clocks) $end
$comment 46 output signals preset $end
$end
$comment CLOCKS: CK $end
$comment INPUTS: COMP_reset, scan_en, TPG_reset, bist_en, SI_chain7, SI_chain6, SI_chain5, SI_chain4, SI_chain3, SI_chain2, SI_chain1, g89, g94, g98, g102, g107, g301, g306, g310, g314, g319, g557, g558, g559, g560, g561, g562, g563, g564, g705, g639, g567, g45, g42, g39, g702, g32, g38, g46, g36, g47, g40, g37, g41, g22, g44, g23 $end
$comment OUTPUTS: SO_chain7, SO_chain6, SO_chain5, SO_chain4, SO_chain3, SO_chain2, SO_chain1, g2584, g3222, g3600, g4307, g4321, g4422, g4809, g5137, g5468, g5469, g5692, g6282, g6284, g6360, g6362, g6364, g6366, g6368, g6370, g6372, g6374, g6728, g1290, g4121, g4108, g4106, g4103, g1293, g4099, g4102, g4109, g4100, g4112, g4105, g4101, g4110, g4104, g4107, g4098 $end


$scope module TOP $end
	$scope module s9234_scan $end
		$var wire 1 CK CK $end
		$var wire 1 COMP_reset COMP_reset $end
		$var wire 1 scan_en scan_en $end
		$var wire 1 TPG_reset TPG_reset $end
		$var wire 1 bist_en bist_en $end
		$var wire 1 SI_chain7 SI_chain7 $end
		$var wire 1 SI_chain6 SI_chain6 $end
		$var wire 1 SI_chain5 SI_chain5 $end
		$var wire 1 SI_chain4 SI_chain4 $end
		$var wire 1 SI_chain3 SI_chain3 $end
		$var wire 1 SI_chain2 SI_chain2 $end
		$var wire 1 SI_chain1 SI_chain1 $end
		$var wire 1 g89 g89 $end
		$var wire 1 g94 g94 $end
		$var wire 1 g98 g98 $end
		$var wire 1 g102 g102 $end
		$var wire 1 g107 g107 $end
		$var wire 1 g301 g301 $end
		$var wire 1 g306 g306 $end
		$var wire 1 g310 g310 $end
		$var wire 1 g314 g314 $end
		$var wire 1 g319 g319 $end
		$var wire 1 g557 g557 $end
		$var wire 1 g558 g558 $end
		$var wire 1 g559 g559 $end
		$var wire 1 g560 g560 $end
		$var wire 1 g561 g561 $end
		$var wire 1 g562 g562 $end
		$var wire 1 g563 g563 $end
		$var wire 1 g564 g564 $end
		$var wire 1 g705 g705 $end
		$var wire 1 g639 g639 $end
		$var wire 1 g567 g567 $end
		$var wire 1 g45 g45 $end
		$var wire 1 g42 g42 $end
		$var wire 1 g39 g39 $end
		$var wire 1 g702 g702 $end
		$var wire 1 g32 g32 $end
		$var wire 1 g38 g38 $end
		$var wire 1 g46 g46 $end
		$var wire 1 g36 g36 $end
		$var wire 1 g47 g47 $end
		$var wire 1 g40 g40 $end
		$var wire 1 g37 g37 $end
		$var wire 1 g41 g41 $end
		$var wire 1 g22 g22 $end
		$var wire 1 g44 g44 $end
		$var wire 1 g23 g23 $end
		$var wire 1 SO_chain7 SO_chain7 $end
		$var wire 1 SO_chain6 SO_chain6 $end
		$var wire 1 SO_chain5 SO_chain5 $end
		$var wire 1 SO_chain4 SO_chain4 $end
		$var wire 1 SO_chain3 SO_chain3 $end
		$var wire 1 SO_chain2 SO_chain2 $end
		$var wire 1 SO_chain1 SO_chain1 $end
		$var wire 1 g2584 g2584 $end
		$var wire 1 g3222 g3222 $end
		$var wire 1 g3600 g3600 $end
		$var wire 1 g4307 g4307 $end
		$var wire 1 g4321 g4321 $end
		$var wire 1 g4422 g4422 $end
		$var wire 1 g4809 g4809 $end
		$var wire 1 g5137 g5137 $end
		$var wire 1 g5468 g5468 $end
		$var wire 1 g5469 g5469 $end
		$var wire 1 g5692 g5692 $end
		$var wire 1 g6282 g6282 $end
		$var wire 1 g6284 g6284 $end
		$var wire 1 g6360 g6360 $end
		$var wire 1 g6362 g6362 $end
		$var wire 1 g6364 g6364 $end
		$var wire 1 g6366 g6366 $end
		$var wire 1 g6368 g6368 $end
		$var wire 1 g6370 g6370 $end
		$var wire 1 g6372 g6372 $end
		$var wire 1 g6374 g6374 $end
		$var wire 1 g6728 g6728 $end
		$var wire 1 g1290 g1290 $end
		$var wire 1 g4121 g4121 $end
		$var wire 1 g4108 g4108 $end
		$var wire 1 g4106 g4106 $end
		$var wire 1 g4103 g4103 $end
		$var wire 1 g1293 g1293 $end
		$var wire 1 g4099 g4099 $end
		$var wire 1 g4102 g4102 $end
		$var wire 1 g4109 g4109 $end
		$var wire 1 g4100 g4100 $end
		$var wire 1 g4112 g4112 $end
		$var wire 1 g4105 g4105 $end
		$var wire 1 g4101 g4101 $end
		$var wire 1 g4110 g4110 $end
		$var wire 1 g4104 g4104 $end
		$var wire 1 g4107 g4107 $end
		$var wire 1 g4098 g4098 $end
	$upscope $end
$upscope $end


$enddefinitions $end
$dumpvars
X CK
X COMP_reset
X scan_en
X TPG_reset
X bist_en
X SI_chain7
X SI_chain6
X SI_chain5
X SI_chain4
X SI_chain3
X SI_chain2
X SI_chain1
X g89
X g94
X g98
X g102
X g107
X g301
X g306
X g310
X g314
X g319
X g557
X g558
X g559
X g560
X g561
X g562
X g563
X g564
X g705
X g639
X g567
X g45
X g42
X g39
X g702
X g32
X g38
X g46
X g36
X g47
X g40
X g37
X g41
X g22
X g44
X g23
X SO_chain7
X SO_chain6
X SO_chain5
X SO_chain4
X SO_chain3
X SO_chain2
X SO_chain1
X g2584
X g3222
X g3600
X g4307
X g4321
X g4422
X g4809
X g5137
X g5468
X g5469
X g5692
X g6282
X g6284
X g6360
X g6362
X g6364
X g6366
X g6368
X g6370
X g6372
X g6374
X g6728
X g1290
X g4121
X g4108
X g4106
X g4103
X g1293
X g4099
X g4102
X g4109
X g4100
X g4112
X g4105
X g4101
X g4110
X g4104
X g4107
X g4098
$end

0 CK

$comment Test vector 1 $end
Z COMP_reset
Z scan_en
Z TPG_reset
Z bist_en
Z SI_chain7
Z SI_chain6
Z SI_chain5
Z SI_chain4
Z SI_chain3
Z SI_chain2
Z SI_chain1
Z g89
Z g94
Z g98
Z g102
Z g107
Z g301
Z g306
Z g310
Z g314
Z g319
Z g557
Z g558
Z g559
Z g560
Z g561
Z g562
Z g563
Z g564
Z g705
Z g639
Z g567
Z g45
Z g42
Z g39
Z g702
Z g32
Z g38
Z g46
Z g36
Z g47
Z g40
Z g37
Z g41
Z g22
Z g44
Z g23
X SO_chain7
X SO_chain6
X SO_chain5
X SO_chain4
X SO_chain3
X SO_chain2
X SO_chain1
X g2584
X g3222
X g3600
X g4307
X g4321
X g4422
X g4809
X g5137
X g5468
X g5469
X g5692
X g6282
X g6284
X g6360
X g6362
X g6364
X g6366
X g6368
X g6370
X g6372
X g6374
X g6728
X g1290
X g4121
X g4108
X g4106
X g4103
X g1293
X g4099
X g4102
X g4109
X g4100
X g4112
X g4105
X g4101
X g4110
X g4104
X g4107
X g4098
#5
#5
0 CK

$comment Test vector 2 $end
0 COMP_reset
1 scan_en
1 TPG_reset
1 bist_en
0 SI_chain7
Z SI_chain6
Z SI_chain5
Z SI_chain4
Z SI_chain3
Z SI_chain2
Z SI_chain1
Z g89
Z g94
Z g98
Z g102
Z g107
Z g301
Z g306
Z g310
Z g314
Z g319
Z g557
Z g558
Z g559
Z g560
Z g561
Z g562
Z g563
Z g564
Z g705
Z g639
Z g567
Z g45
Z g42
Z g39
Z g702
Z g32
Z g38
Z g46
Z g36
Z g47
Z g40
Z g37
Z g41
Z g22
Z g44
Z g23
X SO_chain7
X SO_chain6
X SO_chain5
X SO_chain4
X SO_chain3
X SO_chain2
X SO_chain1
X g2584
X g3222
X g3600
X g4307
X g4321
X g4422
X g4809
X g5137
X g5468
X g5469
X g5692
X g6282
X g6284
X g6360
X g6362
X g6364
X g6366
X g6368
X g6370
X g6372
X g6374
X g6728
X g1290
X g4121
X g4108
X g4106
X g4103
X g1293
X g4099
X g4102
X g4109
X g4100
X g4112
X g4105
X g4101
X g4110
X g4104
X g4107
X g4098
#5
1 CK
#5
0 CK

$comment Test vector 3 $end
0 COMP_reset
1 scan_en
0 TPG_reset
1 bist_en
0 SI_chain7
0 SI_chain6
0 SI_chain5
0 SI_chain4
0 SI_chain3
0 SI_chain2
0 SI_chain1
Z g89
Z g94
Z g98
Z g102
Z g107
Z g301
Z g306
Z g310
Z g314
Z g319
Z g557
Z g558
Z g559
Z g560
Z g561
Z g562
Z g563
Z g564
Z g705
Z g639
Z g567
Z g45
Z g42
Z g39
Z g702
Z g32
Z g38
Z g46
Z g36
Z g47
Z g40
Z g37
Z g41
Z g22
Z g44
Z g23
X SO_chain7
X SO_chain6
X SO_chain5
X SO_chain4
X SO_chain3
X SO_chain2
X SO_chain1
X g2584
X g3222
X g3600
X g4307
X g4321
X g4422
X g4809
X g5137
X g5468
X g5469
X g5692
X g6282
X g6284
X g6360
X g6362
X g6364
X g6366
X g6368
X g6370
X g6372
X g6374
X g6728
X g1290
X g4121
X g4108
X g4106
X g4103
X g1293
X g4099
X g4102
X g4109
X g4100
X g4112
X g4105
X g4101
X g4110
X g4104
X g4107
X g4098
#5
1 CK
#5
0 CK

$comment Test vector 4 $end
0 COMP_reset
1 scan_en
0 TPG_reset
1 bist_en
0 SI_chain7
0 SI_chain6
0 SI_chain5
0 SI_chain4
0 SI_chain3
0 SI_chain2
0 SI_chain1
Z g89
Z g94
Z g98
Z g102
Z g107
Z g301
Z g306
Z g310
Z g314
Z g319
Z g557
Z g558
Z g559
Z g560
Z g561
Z g562
Z g563
Z g564
Z g705
Z g639
Z g567
Z g45
Z g42
Z g39
Z g702
Z g32
Z g38
Z g46
Z g36
Z g47
Z g40
Z g37
Z g41
Z g22
Z g44
Z g23
X SO_chain7
X SO_chain6
X SO_chain5
X SO_chain4
X SO_chain3
X SO_chain2
X SO_chain1
X g2584
X g3222
X g3600
X g4307
X g4321
X g4422
X g4809
X g5137
X g5468
X g5469
X g5692
X g6282
X g6284
X g6360
X g6362
X g6364
X g6366
X g6368
X g6370
X g6372
X g6374
X g6728
X g1290
X g4121
X g4108
X g4106
X g4103
X g1293
X g4099
X g4102
X g4109
X g4100
X g4112
X g4105
X g4101
X g4110
X g4104
X g4107
X g4098
#5
1 CK
#5
0 CK

$comment Test vector 5 $end
0 COMP_reset
1 scan_en
0 TPG_reset
1 bist_en
0 SI_chain7
0 SI_chain6
0 SI_chain5
0 SI_chain4
0 SI_chain3
0 SI_chain2
0 SI_chain1
Z g89
Z g94
Z g98
Z g102
Z g107
Z g301
Z g306
Z g310
Z g314
Z g319
Z g557
Z g558
Z g559
Z g560
Z g561
Z g562
Z g563
Z g564
Z g705
Z g639
Z g567
Z g45
Z g42
Z g39
Z g702
Z g32
Z g38
Z g46
Z g36
Z g47
Z g40
Z g37
Z g41
Z g22
Z g44
Z g23
X SO_chain7
X SO_chain6
X SO_chain5
X SO_chain4
X SO_chain3
X SO_chain2
X SO_chain1
X g2584
X g3222
X g3600
X g4307
X g4321
X g4422
X g4809
X g5137
X g5468
X g5469
X g5692
X g6282
X g6284
X g6360
X g6362
X g6364
X g6366
X g6368
X g6370
X g6372
X g6374
X g6728
X g1290
X g4121
X g4108
X g4106
X g4103
X g1293
X g4099
X g4102
X g4109
X g4100
X g4112
X g4105
X g4101
X g4110
X g4104
X g4107
X g4098
#5
1 CK
#5
0 CK

$comment Test vector 6 $end
0 COMP_reset
1 scan_en
0 TPG_reset
1 bist_en
0 SI_chain7
0 SI_chain6
0 SI_chain5
0 SI_chain4
0 SI_chain3
0 SI_chain2
0 SI_chain1
Z g89
Z g94
Z g98
Z g102
Z g107
Z g301
Z g306
Z g310
Z g314
Z g319
Z g557
Z g558
Z g559
Z g560
Z g561
Z g562
Z g563
Z g564
Z g705
Z g639
Z g567
Z g45
Z g42
Z g39
Z g702
Z g32
Z g38
Z g46
Z g36
Z g47
Z g40
Z g37
Z g41
Z g22
Z g44
Z g23
X SO_chain7
X SO_chain6
X SO_chain5
X SO_chain4
X SO_chain3
X SO_chain2
X SO_chain1
X g2584
X g3222
X g3600
X g4307
X g4321
X g4422
X g4809
X g5137
X g5468
X g5469
X g5692
X g6282
X g6284
X g6360
X g6362
X g6364
X g6366
X g6368
X g6370
X g6372
X g6374
X g6728
X g1290
X g4121
X g4108
X g4106
X g4103
X g1293
X g4099
X g4102
X g4109
X g4100
X g4112
X g4105
X g4101
X g4110
X g4104
X g4107
X g4098
#5
1 CK
#5
0 CK

$comment Test vector 7 $end
0 COMP_reset
1 scan_en
0 TPG_reset
1 bist_en
0 SI_chain7
0 SI_chain6
0 SI_chain5
0 SI_chain4
0 SI_chain3
0 SI_chain2
0 SI_chain1
Z g89
Z g94
Z g98
Z g102
Z g107
Z g301
Z g306
Z g310
Z g314
Z g319
Z g557
Z g558
Z g559
Z g560
Z g561
Z g562
Z g563
Z g564
Z g705
Z g639
Z g567
Z g45
Z g42
Z g39
Z g702
Z g32
Z g38
Z g46
Z g36
Z g47
Z g40
Z g37
Z g41
Z g22
Z g44
Z g23
X SO_chain7
X SO_chain6
X SO_chain5
X SO_chain4
X SO_chain3
X SO_chain2
X SO_chain1
X g2584
X g3222
X g3600
X g4307
X g4321
X g4422
X g4809
X g5137
X g5468
X g5469
X g5692
X g6282
X g6284
X g6360
X g6362
X g6364
X g6366
X g6368
X g6370
X g6372
X g6374
X g6728
X g1290
X g4121
X g4108
X g4106
X g4103
X g1293
X g4099
X g4102
X g4109
X g4100
X g4112
X g4105
X g4101
X g4110
X g4104
X g4107
X g4098
#5
1 CK
#5
0 CK

$comment Test vector 8 $end
0 COMP_reset
1 scan_en
0 TPG_reset
1 bist_en
0 SI_chain7
0 SI_chain6
0 SI_chain5
0 SI_chain4
0 SI_chain3
0 SI_chain2
0 SI_chain1
Z g89
Z g94
Z g98
Z g102
Z g107
Z g301
Z g306
Z g310
Z g314
Z g319
Z g557
Z g558
Z g559
Z g560
Z g561
Z g562
Z g563
Z g564
Z g705
Z g639
Z g567
Z g45
Z g42
Z g39
Z g702
Z g32
Z g38
Z g46
Z g36
Z g47
Z g40
Z g37
Z g41
Z g22
Z g44
Z g23
X SO_chain7
X SO_chain6
X SO_chain5
X SO_chain4
X SO_chain3
X SO_chain2
X SO_chain1
X g2584
X g3222
X g3600
X g4307
X g4321
X g4422
X g4809
X g5137
X g5468
X g5469
X g5692
X g6282
X g6284
X g6360
X g6362
X g6364
X g6366
X g6368
X g6370
X g6372
X g6374
X g6728
X g1290
X g4121
X g4108
X g4106
X g4103
X g1293
X g4099
X g4102
X g4109
X g4100
X g4112
X g4105
X g4101
X g4110
X g4104
X g4107
X g4098
#5
1 CK
#5
0 CK

$comment Test vector 9 $end
0 COMP_reset
1 scan_en
0 TPG_reset
1 bist_en
0 SI_chain7
0 SI_chain6
0 SI_chain5
0 SI_chain4
0 SI_chain3
0 SI_chain2
0 SI_chain1
Z g89
Z g94
Z g98
Z g102
Z g107
Z g301
Z g306
Z g310
Z g314
Z g319
Z g557
Z g558
Z g559
Z g560
Z g561
Z g562
Z g563
Z g564
Z g705
Z g639
Z g567
Z g45
Z g42
Z g39
Z g702
Z g32
Z g38
Z g46
Z g36
Z g47
Z g40
Z g37
Z g41
Z g22
Z g44
Z g23
X SO_chain7
X SO_chain6
X SO_chain5
X SO_chain4
X SO_chain3
X SO_chain2
X SO_chain1
X g2584
X g3222
X g3600
X g4307
X g4321
X g4422
X g4809
X g5137
X g5468
X g5469
X g5692
X g6282
X g6284
X g6360
X g6362
X g6364
X g6366
X g6368
X g6370
X g6372
X g6374
X g6728
X g1290
X g4121
X g4108
X g4106
X g4103
X g1293
X g4099
X g4102
X g4109
X g4100
X g4112
X g4105
X g4101
X g4110
X g4104
X g4107
X g4098
#5
1 CK
#5
0 CK

$comment Test vector 10 $end
0 COMP_reset
1 scan_en
0 TPG_reset
1 bist_en
0 SI_chain7
0 SI_chain6
0 SI_chain5
0 SI_chain4
0 SI_chain3
0 SI_chain2
0 SI_chain1
Z g89
Z g94
Z g98
Z g102
Z g107
Z g301
Z g306
Z g310
Z g314
Z g319
Z g557
Z g558
Z g559
Z g560
Z g561
Z g562
Z g563
Z g564
Z g705
Z g639
Z g567
Z g45
Z g42
Z g39
Z g702
Z g32
Z g38
Z g46
Z g36
Z g47
Z g40
Z g37
Z g41
Z g22
Z g44
Z g23
X SO_chain7
X SO_chain6
X SO_chain5
X SO_chain4
X SO_chain3
X SO_chain2
X SO_chain1
X g2584
X g3222
X g3600
X g4307
X g4321
X g4422
X g4809
X g5137
X g5468
X g5469
X g5692
X g6282
X g6284
X g6360
X g6362
X g6364
X g6366
X g6368
X g6370
X g6372
X g6374
X g6728
X g1290
X g4121
X g4108
X g4106
X g4103
X g1293
X g4099
X g4102
X g4109
X g4100
X g4112
X g4105
X g4101
X g4110
X g4104
X g4107
X g4098
#5
1 CK
#5
0 CK

$comment Test vector 11 $end
0 COMP_reset
1 scan_en
0 TPG_reset
1 bist_en
0 SI_chain7
0 SI_chain6
0 SI_chain5
0 SI_chain4
0 SI_chain3
0 SI_chain2
0 SI_chain1
Z g89
Z g94
Z g98
Z g102
Z g107
Z g301
Z g306
Z g310
Z g314
Z g319
Z g557
Z g558
Z g559
Z g560
Z g561
Z g562
Z g563
Z g564
Z g705
Z g639
Z g567
Z g45
Z g42
Z g39
Z g702
Z g32
Z g38
Z g46
Z g36
Z g47
Z g40
Z g37
Z g41
Z g22
Z g44
Z g23
X SO_chain7
X SO_chain6
X SO_chain5
X SO_chain4
X SO_chain3
X SO_chain2
X SO_chain1
X g2584
X g3222
X g3600
X g4307
X g4321
X g4422
X g4809
X g5137
X g5468
X g5469
X g5692
X g6282
X g6284
X g6360
X g6362
X g6364
X g6366
X g6368
X g6370
X g6372
X g6374
X g6728
X g1290
X g4121
X g4108
X g4106
X g4103
X g1293
X g4099
X g4102
X g4109
X g4100
X g4112
X g4105
X g4101
X g4110
X g4104
X g4107
X g4098
#5
1 CK
#5
0 CK

$comment Test vector 12 $end
0 COMP_reset
1 scan_en
0 TPG_reset
1 bist_en
0 SI_chain7
0 SI_chain6
0 SI_chain5
0 SI_chain4
0 SI_chain3
0 SI_chain2
0 SI_chain1
Z g89
Z g94
Z g98
Z g102
Z g107
Z g301
Z g306
Z g310
Z g314
Z g319
Z g557
Z g558
Z g559
Z g560
Z g561
Z g562
Z g563
Z g564
Z g705
Z g639
Z g567
Z g45
Z g42
Z g39
Z g702
Z g32
Z g38
Z g46
Z g36
Z g47
Z g40
Z g37
Z g41
Z g22
Z g44
Z g23
X SO_chain7
X SO_chain6
X SO_chain5
X SO_chain4
X SO_chain3
X SO_chain2
X SO_chain1
X g2584
X g3222
X g3600
X g4307
X g4321
X g4422
X g4809
X g5137
X g5468
X g5469
X g5692
X g6282
X g6284
X g6360
X g6362
X g6364
X g6366
X g6368
X g6370
X g6372
X g6374
X g6728
X g1290
X g4121
X g4108
X g4106
X g4103
X g1293
X g4099
X g4102
X g4109
X g4100
X g4112
X g4105
X g4101
X g4110
X g4104
X g4107
X g4098
#5
1 CK
#5
0 CK

$comment Test vector 13 $end
0 COMP_reset
1 scan_en
0 TPG_reset
1 bist_en
0 SI_chain7
0 SI_chain6
0 SI_chain5
0 SI_chain4
0 SI_chain3
0 SI_chain2
0 SI_chain1
Z g89
Z g94
Z g98
Z g102
Z g107
Z g301
Z g306
Z g310
Z g314
Z g319
Z g557
Z g558
Z g559
Z g560
Z g561
Z g562
Z g563
Z g564
Z g705
Z g639
Z g567
Z g45
Z g42
Z g39
Z g702
Z g32
Z g38
Z g46
Z g36
Z g47
Z g40
Z g37
Z g41
Z g22
Z g44
Z g23
X SO_chain7
X SO_chain6
X SO_chain5
X SO_chain4
X SO_chain3
X SO_chain2
X SO_chain1
X g2584
X g3222
X g3600
X g4307
X g4321
X g4422
X g4809
X g5137
X g5468
X g5469
X g5692
X g6282
X g6284
X g6360
X g6362
X g6364
X g6366
X g6368
X g6370
X g6372
X g6374
X g6728
X g1290
X g4121
X g4108
X g4106
X g4103
X g1293
X g4099
X g4102
X g4109
X g4100
X g4112
X g4105
X g4101
X g4110
X g4104
X g4107
X g4098
#5
1 CK
#5
0 CK

$comment Test vector 14 $end
0 COMP_reset
1 scan_en
0 TPG_reset
1 bist_en
0 SI_chain7
0 SI_chain6
0 SI_chain5
0 SI_chain4
0 SI_chain3
0 SI_chain2
0 SI_chain1
Z g89
Z g94
Z g98
Z g102
Z g107
Z g301
Z g306
Z g310
Z g314
Z g319
Z g557
Z g558
Z g559
Z g560
Z g561
Z g562
Z g563
Z g564
Z g705
Z g639
Z g567
Z g45
Z g42
Z g39
Z g702
Z g32
Z g38
Z g46
Z g36
Z g47
Z g40
Z g37
Z g41
Z g22
Z g44
Z g23
X SO_chain7
X SO_chain6
X SO_chain5
X SO_chain4
X SO_chain3
X SO_chain2
X SO_chain1
X g2584
X g3222
X g3600
X g4307
X g4321
X g4422
X g4809
X g5137
X g5468
X g5469
X g5692
X g6282
X g6284
X g6360
X g6362
X g6364
X g6366
X g6368
X g6370
X g6372
X g6374
X g6728
X g1290
X g4121
X g4108
X g4106
X g4103
X g1293
X g4099
X g4102
X g4109
X g4100
X g4112
X g4105
X g4101
X g4110
X g4104
X g4107
X g4098
#5
1 CK
#5
0 CK

$comment Test vector 15 $end
0 COMP_reset
1 scan_en
0 TPG_reset
1 bist_en
0 SI_chain7
0 SI_chain6
0 SI_chain5
0 SI_chain4
0 SI_chain3
0 SI_chain2
0 SI_chain1
Z g89
Z g94
Z g98
Z g102
Z g107
Z g301
Z g306
Z g310
Z g314
Z g319
Z g557
Z g558
Z g559
Z g560
Z g561
Z g562
Z g563
Z g564
Z g705
Z g639
Z g567
Z g45
Z g42
Z g39
Z g702
Z g32
Z g38
Z g46
Z g36
Z g47
Z g40
Z g37
Z g41
Z g22
Z g44
Z g23
X SO_chain7
X SO_chain6
X SO_chain5
X SO_chain4
X SO_chain3
X SO_chain2
X SO_chain1
X g2584
X g3222
X g3600
X g4307
X g4321
X g4422
X g4809
X g5137
X g5468
X g5469
X g5692
X g6282
X g6284
X g6360
X g6362
X g6364
X g6366
X g6368
X g6370
X g6372
X g6374
X g6728
X g1290
X g4121
X g4108
X g4106
X g4103
X g1293
X g4099
X g4102
X g4109
X g4100
X g4112
X g4105
X g4101
X g4110
X g4104
X g4107
X g4098
#5
1 CK
#5
0 CK

$comment Test vector 16 $end
0 COMP_reset
1 scan_en
0 TPG_reset
1 bist_en
0 SI_chain7
0 SI_chain6
0 SI_chain5
0 SI_chain4
0 SI_chain3
0 SI_chain2
0 SI_chain1
Z g89
Z g94
Z g98
Z g102
Z g107
Z g301
Z g306
Z g310
Z g314
Z g319
Z g557
Z g558
Z g559
Z g560
Z g561
Z g562
Z g563
Z g564
Z g705
Z g639
Z g567
Z g45
Z g42
Z g39
Z g702
Z g32
Z g38
Z g46
Z g36
Z g47
Z g40
Z g37
Z g41
Z g22
Z g44
Z g23
X SO_chain7
X SO_chain6
X SO_chain5
X SO_chain4
X SO_chain3
X SO_chain2
X SO_chain1
X g2584
X g3222
X g3600
X g4307
X g4321
X g4422
X g4809
X g5137
X g5468
X g5469
X g5692
X g6282
X g6284
X g6360
X g6362
X g6364
X g6366
X g6368
X g6370
X g6372
X g6374
X g6728
X g1290
X g4121
X g4108
X g4106
X g4103
X g1293
X g4099
X g4102
X g4109
X g4100
X g4112
X g4105
X g4101
X g4110
X g4104
X g4107
X g4098
#5
1 CK
#5
0 CK

$comment Test vector 17 $end
0 COMP_reset
1 scan_en
0 TPG_reset
1 bist_en
0 SI_chain7
0 SI_chain6
0 SI_chain5
0 SI_chain4
0 SI_chain3
0 SI_chain2
0 SI_chain1
Z g89
Z g94
Z g98
Z g102
Z g107
Z g301
Z g306
Z g310
Z g314
Z g319
Z g557
Z g558
Z g559
Z g560
Z g561
Z g562
Z g563
Z g564
Z g705
Z g639
Z g567
Z g45
Z g42
Z g39
Z g702
Z g32
Z g38
Z g46
Z g36
Z g47
Z g40
Z g37
Z g41
Z g22
Z g44
Z g23
X SO_chain7
X SO_chain6
X SO_chain5
X SO_chain4
X SO_chain3
X SO_chain2
X SO_chain1
X g2584
X g3222
X g3600
X g4307
X g4321
X g4422
X g4809
X g5137
X g5468
X g5469
X g5692
X g6282
X g6284
X g6360
X g6362
X g6364
X g6366
X g6368
X g6370
X g6372
X g6374
X g6728
X g1290
X g4121
X g4108
X g4106
X g4103
X g1293
X g4099
X g4102
X g4109
X g4100
X g4112
X g4105
X g4101
X g4110
X g4104
X g4107
X g4098
#5
1 CK
#5
0 CK

$comment Test vector 18 $end
0 COMP_reset
1 scan_en
0 TPG_reset
1 bist_en
0 SI_chain7
0 SI_chain6
0 SI_chain5
0 SI_chain4
0 SI_chain3
0 SI_chain2
0 SI_chain1
Z g89
Z g94
Z g98
Z g102
Z g107
Z g301
Z g306
Z g310
Z g314
Z g319
Z g557
Z g558
Z g559
Z g560
Z g561
Z g562
Z g563
Z g564
Z g705
Z g639
Z g567
Z g45
Z g42
Z g39
Z g702
Z g32
Z g38
Z g46
Z g36
Z g47
Z g40
Z g37
Z g41
Z g22
Z g44
Z g23
X SO_chain7
X SO_chain6
X SO_chain5
X SO_chain4
X SO_chain3
X SO_chain2
X SO_chain1
X g2584
X g3222
X g3600
X g4307
X g4321
X g4422
X g4809
X g5137
X g5468
X g5469
X g5692
X g6282
X g6284
X g6360
X g6362
X g6364
X g6366
X g6368
X g6370
X g6372
X g6374
X g6728
X g1290
X g4121
X g4108
X g4106
X g4103
X g1293
X g4099
X g4102
X g4109
X g4100
X g4112
X g4105
X g4101
X g4110
X g4104
X g4107
X g4098
#5
1 CK
#5
0 CK

$comment Test vector 19 $end
0 COMP_reset
1 scan_en
0 TPG_reset
1 bist_en
0 SI_chain7
0 SI_chain6
0 SI_chain5
0 SI_chain4
0 SI_chain3
0 SI_chain2
0 SI_chain1
Z g89
Z g94
Z g98
Z g102
Z g107
Z g301
Z g306
Z g310
Z g314
Z g319
Z g557
Z g558
Z g559
Z g560
Z g561
Z g562
Z g563
Z g564
Z g705
Z g639
Z g567
Z g45
Z g42
Z g39
Z g702
Z g32
Z g38
Z g46
Z g36
Z g47
Z g40
Z g37
Z g41
Z g22
Z g44
Z g23
X SO_chain7
X SO_chain6
X SO_chain5
X SO_chain4
X SO_chain3
X SO_chain2
X SO_chain1
X g2584
X g3222
X g3600
X g4307
X g4321
X g4422
X g4809
X g5137
X g5468
X g5469
X g5692
X g6282
X g6284
X g6360
X g6362
X g6364
X g6366
X g6368
X g6370
X g6372
X g6374
X g6728
X g1290
X g4121
X g4108
X g4106
X g4103
X g1293
X g4099
X g4102
X g4109
X g4100
X g4112
X g4105
X g4101
X g4110
X g4104
X g4107
X g4098
#5
1 CK
#5
0 CK

$comment Test vector 20 $end
0 COMP_reset
1 scan_en
0 TPG_reset
1 bist_en
0 SI_chain7
0 SI_chain6
0 SI_chain5
0 SI_chain4
0 SI_chain3
0 SI_chain2
0 SI_chain1
Z g89
Z g94
Z g98
Z g102
Z g107
Z g301
Z g306
Z g310
Z g314
Z g319
Z g557
Z g558
Z g559
Z g560
Z g561
Z g562
Z g563
Z g564
Z g705
Z g639
Z g567
Z g45
Z g42
Z g39
Z g702
Z g32
Z g38
Z g46
Z g36
Z g47
Z g40
Z g37
Z g41
Z g22
Z g44
Z g23
X SO_chain7
X SO_chain6
X SO_chain5
X SO_chain4
X SO_chain3
X SO_chain2
X SO_chain1
X g2584
X g3222
X g3600
X g4307
X g4321
X g4422
X g4809
X g5137
X g5468
X g5469
X g5692
X g6282
X g6284
X g6360
X g6362
X g6364
X g6366
X g6368
X g6370
X g6372
X g6374
X g6728
X g1290
X g4121
X g4108
X g4106
X g4103
X g1293
X g4099
X g4102
X g4109
X g4100
X g4112
X g4105
X g4101
X g4110
X g4104
X g4107
X g4098
#5
1 CK
#5
0 CK

$comment Test vector 21 $end
0 COMP_reset
1 scan_en
0 TPG_reset
1 bist_en
0 SI_chain7
0 SI_chain6
0 SI_chain5
0 SI_chain4
0 SI_chain3
0 SI_chain2
0 SI_chain1
Z g89
Z g94
Z g98
Z g102
Z g107
Z g301
Z g306
Z g310
Z g314
Z g319
Z g557
Z g558
Z g559
Z g560
Z g561
Z g562
Z g563
Z g564
Z g705
Z g639
Z g567
Z g45
Z g42
Z g39
Z g702
Z g32
Z g38
Z g46
Z g36
Z g47
Z g40
Z g37
Z g41
Z g22
Z g44
Z g23
X SO_chain7
X SO_chain6
X SO_chain5
X SO_chain4
X SO_chain3
X SO_chain2
X SO_chain1
X g2584
X g3222
X g3600
X g4307
X g4321
X g4422
X g4809
X g5137
X g5468
X g5469
X g5692
X g6282
X g6284
X g6360
X g6362
X g6364
X g6366
X g6368
X g6370
X g6372
X g6374
X g6728
X g1290
X g4121
X g4108
X g4106
X g4103
X g1293
X g4099
X g4102
X g4109
X g4100
X g4112
X g4105
X g4101
X g4110
X g4104
X g4107
X g4098
#5
1 CK
